dashboard_hw
…
  Plotly

  Dashboard

dashboard_hw

# 134 aisles
load(file='instacart.rda')
instacart %>% 
  count(aisle) %>% 
  filter(n > 10000) %>% 
  arrange(desc(n))

## # A tibble: 39 × 2
##    aisle                              n
##    <chr>                          <int>
##  1 fresh vegetables              150609
##  2 fresh fruits                  150473
##  3 packaged vegetables fruits     78493
##  4 yogurt                         55240
##  5 packaged cheese                41699
##  6 water seltzer sparkling water  36617
##  7 milk                           32644
##  8 chips pretzels                 31269
##  9 soy lactosefree                26240
## 10 bread                          23635
## # … with 29 more rows
…
